Questions and Answers – DOCTR
…
When you are loading packages, sometimes different packages have the same function names in them, and the functions themselves will do very different things. For example, there is a select function in the tidyverse, but also another select function in the package MASS that does something very different. If we load the tidyverse before loading MASS, then the MASS version of select is the one that will be used?!

library(tidyverse)
library(MASS)

diamonds %>% select(carat, cut, color)

To get around this make sure that you load the tidyverse after MASS, to be safe you should always load the tidyverse last.

library(MASS) 
library(tidyverse)

diamonds %>% select(carat, cut, color)

# A tibble: 53,940 × 3
   carat cut       color
   <dbl> <ord>     <ord>
 1  0.23 Ideal     E    
 2  0.21 Premium   E    
 3  0.23 Good      E    
 4  0.29 Premium   I    
 5  0.31 Good      J    
 6  0.24 Very Good J    
 7  0.24 Very Good I    
 8  0.26 Very Good H    
 9  0.22 Fair      E    
10  0.23 Very Good H    
# ℹ 53,930 more rows

you can also specify the package that select comes from (in this case from a package within the tidyverse called dplyr):

diamonds %>% dplyr::select(carat, cut, color)

# A tibble: 53,940 × 3
   carat cut       color
   <dbl> <ord>     <ord>
 1  0.23 Ideal     E    
 2  0.21 Premium   E    
 3  0.23 Good      E    
 4  0.29 Premium   I    
 5  0.31 Good      J    
 6  0.24 Very Good J    
 7  0.24 Very Good I    
 8  0.26 Very Good H    
 9  0.22 Fair      E    
10  0.23 Very Good H    
# ℹ 53,930 more rows
…
